EESchema Schematic File Version 4
EELAYER 26 0
EELAYER END
$Descr A4 11693 8268
encoding utf-8
Sheet 1 1
Title "Childs Player"
Date "2019-01-04"
Rev "0.1"
Comp ""
Comment1 ""
Comment2 ""
Comment3 ""
Comment4 ""
$EndDescr
$Comp
L MCU_Module:Arduino_Nano_v3.x A1
U 1 1 5C2E25B6
P 4350 3500
F 0 "A1" H 4350 2414 50  0000 C CNN
F 1 "Arduino_Nano_v3.x" H 4350 2323 50  0000 C CNN
F 2 "Module:Arduino_Nano" H 4500 2550 50  0001 L CNN
F 3 "http://www.mouser.com/pdfdocs/Gravitech_Arduino_Nano3_0.pdf" H 4350 2500 50  0001 C CNN
	1    4350 3500
	1    0    0    -1  
$EndComp
$Comp
L Switch:SW_Push SW_FOLDER_3
U 1 1 5C2E2853
P 1400 1250
F 0 "SW_FOLDER_3" H 1400 1535 50  0000 C CNN
F 1 "SW_Push" H 1400 1444 50  0000 C CNN
F 2 "" H 1400 1450 50  0001 C CNN
F 3 "" H 1400 1450 50  0001 C CNN
	1    1400 1250
	1    0    0    -1  
$EndComp
$Comp
L rur:DFPLAYER_MINI U1
U 1 1 5C2F12FD
P 8150 3150
F 0 "U1" H 8150 3837 60  0000 C CNN
F 1 "DFPLAYER_MINI" H 8150 3731 60  0000 C CNN
F 2 "" H 8150 3150 60  0000 C CNN
F 3 "" H 8150 3150 60  0000 C CNN
	1    8150 3150
	1    0    0    -1  
$EndComp
$Comp
L power:GND #PWR0101
U 1 1 5C2F1650
P 4450 5000
F 0 "#PWR0101" H 4450 4750 50  0001 C CNN
F 1 "GND" H 4455 4827 50  0000 C CNN
F 2 "" H 4450 5000 50  0001 C CNN
F 3 "" H 4450 5000 50  0001 C CNN
	1    4450 5000
	1    0    0    -1  
$EndComp
$Comp
L power:GND #PWR0102
U 1 1 5C2F166F
P 9550 3400
F 0 "#PWR0102" H 9550 3150 50  0001 C CNN
F 1 "GND" H 9555 3227 50  0000 C CNN
F 2 "" H 9550 3400 50  0001 C CNN
F 3 "" H 9550 3400 50  0001 C CNN
	1    9550 3400
	1    0    0    -1  
$EndComp
Wire Wire Line
	8750 3400 9550 3400
Wire Wire Line
	4450 5000 4450 4500
Wire Wire Line
	4550 2500 4550 2100
Wire Wire Line
	4550 2100 5950 2100
Wire Wire Line
	7550 2100 7550 2800
Entry Wire Line
	3250 3500 3350 3600
Entry Wire Line
	3250 3400 3350 3500
Entry Wire Line
	6750 2900 6850 3000
Entry Wire Line
	6750 2800 6850 2900
$Comp
L Device:Speaker LS1
U 1 1 5C2F2410
P 8000 4200
F 0 "LS1" H 8170 4196 50  0000 L CNN
F 1 "Speaker" H 8170 4105 50  0000 L CNN
F 2 "" H 8000 4000 50  0001 C CNN
F 3 "~" H 7990 4150 50  0001 C CNN
	1    8000 4200
	1    0    0    -1  
$EndComp
Wire Wire Line
	7800 4200 7050 4200
Wire Wire Line
	7050 4200 7050 3300
Wire Wire Line
	7050 3300 7550 3300
Wire Wire Line
	7800 4300 7150 4300
Wire Wire Line
	7150 4300 7150 3500
Wire Wire Line
	7150 3500 7550 3500
Text Label 7400 4300 0    50   ~ 0
Speaker+
Text Label 7400 4200 0    50   ~ 0
Speaker-
$Comp
L power:GND #PWR0103
U 1 1 5C2F26D5
P 950 1250
F 0 "#PWR0103" H 950 1000 50  0001 C CNN
F 1 "GND" H 955 1077 50  0000 C CNN
F 2 "" H 950 1250 50  0001 C CNN
F 3 "" H 950 1250 50  0001 C CNN
	1    950  1250
	1    0    0    -1  
$EndComp
Wire Wire Line
	1200 1250 950  1250
Wire Wire Line
	3650 3100 3850 3100
$Comp
L Switch:SW_Push SW_FOLDER_2
U 1 1 5C2F2D10
P 1400 1750
F 0 "SW_FOLDER_2" H 1400 2035 50  0000 C CNN
F 1 "SW_Push" H 1400 1944 50  0000 C CNN
F 2 "" H 1400 1950 50  0001 C CNN
F 3 "" H 1400 1950 50  0001 C CNN
	1    1400 1750
	1    0    0    -1  
$EndComp
$Comp
L power:GND #PWR0104
U 1 1 5C2F2D16
P 950 1750
F 0 "#PWR0104" H 950 1500 50  0001 C CNN
F 1 "GND" H 955 1577 50  0000 C CNN
F 2 "" H 950 1750 50  0001 C CNN
F 3 "" H 950 1750 50  0001 C CNN
	1    950  1750
	1    0    0    -1  
$EndComp
Wire Wire Line
	1200 1750 950  1750
Wire Wire Line
	1600 1250 3650 1250
Wire Wire Line
	3650 1250 3650 3100
Wire Wire Line
	1600 1750 3550 1750
Wire Wire Line
	3550 1750 3550 3200
Wire Wire Line
	3550 3200 3850 3200
$Comp
L Switch:SW_Push SW_FOLDER_1
U 1 1 5C2F3B85
P 1400 2300
F 0 "SW_FOLDER_1" H 1400 2585 50  0000 C CNN
F 1 "SW_Push" H 1400 2494 50  0000 C CNN
F 2 "" H 1400 2500 50  0001 C CNN
F 3 "" H 1400 2500 50  0001 C CNN
	1    1400 2300
	1    0    0    -1  
$EndComp
$Comp
L power:GND #PWR0105
U 1 1 5C2F3B8B
P 950 2300
F 0 "#PWR0105" H 950 2050 50  0001 C CNN
F 1 "GND" H 955 2127 50  0000 C CNN
F 2 "" H 950 2300 50  0001 C CNN
F 3 "" H 950 2300 50  0001 C CNN
	1    950  2300
	1    0    0    -1  
$EndComp
Wire Wire Line
	1200 2300 950  2300
$Comp
L Switch:SW_Push SW_FOLDER_6
U 1 1 5C2F3B92
P 1400 2800
F 0 "SW_FOLDER_6" H 1400 3085 50  0000 C CNN
F 1 "SW_Push" H 1400 2994 50  0000 C CNN
F 2 "" H 1400 3000 50  0001 C CNN
F 3 "" H 1400 3000 50  0001 C CNN
	1    1400 2800
	1    0    0    -1  
$EndComp
$Comp
L power:GND #PWR0106
U 1 1 5C2F3B98
P 950 2800
F 0 "#PWR0106" H 950 2550 50  0001 C CNN
F 1 "GND" H 955 2627 50  0000 C CNN
F 2 "" H 950 2800 50  0001 C CNN
F 3 "" H 950 2800 50  0001 C CNN
	1    950  2800
	1    0    0    -1  
$EndComp
Wire Wire Line
	1200 2800 950  2800
$Comp
L Switch:SW_Push SW_FOLDER_5
U 1 1 5C2F4021
P 1400 3350
F 0 "SW_FOLDER_5" H 1400 3635 50  0000 C CNN
F 1 "SW_Push" H 1400 3544 50  0000 C CNN
F 2 "" H 1400 3550 50  0001 C CNN
F 3 "" H 1400 3550 50  0001 C CNN
	1    1400 3350
	1    0    0    -1  
$EndComp
$Comp
L power:GND #PWR0107
U 1 1 5C2F4027
P 950 3350
F 0 "#PWR0107" H 950 3100 50  0001 C CNN
F 1 "GND" H 955 3177 50  0000 C CNN
F 2 "" H 950 3350 50  0001 C CNN
F 3 "" H 950 3350 50  0001 C CNN
	1    950  3350
	1    0    0    -1  
$EndComp
Wire Wire Line
	1200 3350 950  3350
$Comp
L Switch:SW_Push SW_FOLDER_4
U 1 1 5C2F402E
P 1400 3850
F 0 "SW_FOLDER_4" H 1400 4135 50  0000 C CNN
F 1 "SW_Push" H 1400 4044 50  0000 C CNN
F 2 "" H 1400 4050 50  0001 C CNN
F 3 "" H 1400 4050 50  0001 C CNN
	1    1400 3850
	1    0    0    -1  
$EndComp
$Comp
L power:GND #PWR0108
U 1 1 5C2F4034
P 950 3850
F 0 "#PWR0108" H 950 3600 50  0001 C CNN
F 1 "GND" H 955 3677 50  0000 C CNN
F 2 "" H 950 3850 50  0001 C CNN
F 3 "" H 950 3850 50  0001 C CNN
	1    950  3850
	1    0    0    -1  
$EndComp
$Comp
L Switch:SW_Push SW_PLAY_PAUSE1
U 1 1 5C2F403B
P 1400 4400
F 0 "SW_PLAY_PAUSE1" H 1400 4685 50  0000 C CNN
F 1 "SW_Push" H 1400 4594 50  0000 C CNN
F 2 "" H 1400 4600 50  0001 C CNN
F 3 "" H 1400 4600 50  0001 C CNN
	1    1400 4400
	1    0    0    -1  
$EndComp
$Comp
L power:GND #PWR0109
U 1 1 5C2F4041
P 950 4400
F 0 "#PWR0109" H 950 4150 50  0001 C CNN
F 1 "GND" H 955 4227 50  0000 C CNN
F 2 "" H 950 4400 50  0001 C CNN
F 3 "" H 950 4400 50  0001 C CNN
	1    950  4400
	1    0    0    -1  
$EndComp
Wire Wire Line
	1200 4400 950  4400
$Comp
L Switch:SW_Push SW_PREVIOUS1
U 1 1 5C2F4048
P 1400 4900
F 0 "SW_PREVIOUS1" H 1400 5185 50  0000 C CNN
F 1 "SW_Push" H 1400 5094 50  0000 C CNN
F 2 "" H 1400 5100 50  0001 C CNN
F 3 "" H 1400 5100 50  0001 C CNN
	1    1400 4900
	1    0    0    -1  
$EndComp
$Comp
L power:GND #PWR0110
U 1 1 5C2F404E
P 950 4900
F 0 "#PWR0110" H 950 4650 50  0001 C CNN
F 1 "GND" H 955 4727 50  0000 C CNN
F 2 "" H 950 4900 50  0001 C CNN
F 3 "" H 950 4900 50  0001 C CNN
	1    950  4900
	1    0    0    -1  
$EndComp
Wire Wire Line
	1200 4900 950  4900
$Comp
L Switch:SW_Push SW_NEXT1
U 1 1 5C2F4BC8
P 1400 5400
F 0 "SW_NEXT1" H 1400 5685 50  0000 C CNN
F 1 "SW_Push" H 1400 5594 50  0000 C CNN
F 2 "" H 1400 5600 50  0001 C CNN
F 3 "" H 1400 5600 50  0001 C CNN
	1    1400 5400
	1    0    0    -1  
$EndComp
$Comp
L power:GND #PWR0111
U 1 1 5C2F4BCE
P 950 5400
F 0 "#PWR0111" H 950 5150 50  0001 C CNN
F 1 "GND" H 955 5227 50  0000 C CNN
F 2 "" H 950 5400 50  0001 C CNN
F 3 "" H 950 5400 50  0001 C CNN
	1    950  5400
	1    0    0    -1  
$EndComp
Wire Wire Line
	1200 5400 950  5400
Wire Wire Line
	1600 2300 2850 2300
Wire Wire Line
	3450 3300 3850 3300
Wire Wire Line
	3850 3800 3200 3800
Wire Wire Line
	3200 3800 3200 2800
Wire Wire Line
	3200 2800 1600 2800
Wire Wire Line
	3850 3900 3100 3900
Wire Wire Line
	3100 3900 3100 3350
Wire Wire Line
	3100 3350 1600 3350
Wire Wire Line
	3850 4000 3000 4000
Wire Wire Line
	3000 4000 3000 3850
Wire Wire Line
	3000 3850 1600 3850
Wire Wire Line
	3000 4400 3000 4100
Wire Wire Line
	3000 4100 3850 4100
Wire Wire Line
	1600 4400 3000 4400
Wire Wire Line
	1600 4900 3750 4900
Wire Wire Line
	3750 4900 3750 5350
Wire Wire Line
	3750 5350 5050 5350
Wire Wire Line
	5050 5350 5050 4000
Wire Wire Line
	5050 4000 4850 4000
Wire Wire Line
	5100 5400 5100 3900
Wire Wire Line
	5100 3900 4850 3900
Wire Wire Line
	1600 5400 5100 5400
$Comp
L Switch:SW_Push_SPDT SW_LIMIT_LOUDNESS1
U 1 1 5C2FDD52
P 5700 3800
F 0 "SW_LIMIT_LOUDNESS1" H 5700 4085 50  0000 C CNN
F 1 "SW_Push_SPDT" H 5700 3994 50  0000 C CNN
F 2 "" H 5700 3800 50  0001 C CNN
F 3 "" H 5700 3800 50  0001 C CNN
	1    5700 3800
	1    0    0    -1  
$EndComp
$Comp
L power:GND #PWR0112
U 1 1 5C2FDE9E
P 6000 3900
F 0 "#PWR0112" H 6000 3650 50  0001 C CNN
F 1 "GND" H 6005 3727 50  0000 C CNN
F 2 "" H 6000 3900 50  0001 C CNN
F 3 "" H 6000 3900 50  0001 C CNN
	1    6000 3900
	1    0    0    -1  
$EndComp
Wire Wire Line
	5900 3900 6000 3900
Wire Wire Line
	4850 3800 5500 3800
$Comp
L Device:R_POT RV_LOUDNESS1
U 1 1 5C30348F
P 6300 3100
F 0 "RV_LOUDNESS1" V 6093 3100 50  0000 C CNN
F 1 "10k" V 6184 3100 50  0000 C CNN
F 2 "" H 6300 3100 50  0001 C CNN
F 3 "~" H 6300 3100 50  0001 C CNN
	1    6300 3100
	0    1    1    0   
$EndComp
Wire Wire Line
	4850 3600 5250 3600
Wire Wire Line
	5250 3600 5250 3400
Wire Wire Line
	5250 3400 6300 3400
Wire Wire Line
	6300 3400 6300 3250
Wire Wire Line
	6500 3100 6450 3100
$Comp
L power:GND #PWR0113
U 1 1 5C308C47
P 6500 3100
F 0 "#PWR0113" H 6500 2850 50  0001 C CNN
F 1 "GND" H 6505 2927 50  0000 C CNN
F 2 "" H 6500 3100 50  0001 C CNN
F 3 "" H 6500 3100 50  0001 C CNN
	1    6500 3100
	1    0    0    -1  
$EndComp
Wire Wire Line
	6150 3100 5950 3100
Wire Wire Line
	5950 3100 5950 2100
Connection ~ 5950 2100
Wire Wire Line
	5950 2100 7550 2100
$Comp
L Device:R R1
U 1 1 5C30E0EC
P 7400 2900
F 0 "R1" V 7193 2900 50  0000 C CNN
F 1 "1k" V 7284 2900 50  0000 C CNN
F 2 "" V 7330 2900 50  0001 C CNN
F 3 "~" H 7400 2900 50  0001 C CNN
	1    7400 2900
	0    1    1    0   
$EndComp
$Comp
L Device:R R2
U 1 1 5C30E197
P 7400 3000
F 0 "R2" V 7300 3000 50  0000 C CNN
F 1 "1k" V 7200 3000 50  0000 C CNN
F 2 "" V 7330 3000 50  0001 C CNN
F 3 "~" H 7400 3000 50  0001 C CNN
	1    7400 3000
	0    -1   -1   0   
$EndComp
Wire Wire Line
	1200 3850 950  3850
Text Label 6950 2900 0    50   ~ 0
TX_MCU
Text Label 6950 3000 0    50   ~ 0
RX_MCU
Wire Wire Line
	6850 3000 7250 3000
Wire Wire Line
	6850 2900 7250 2900
NoConn ~ 8750 2800
NoConn ~ 8750 2900
NoConn ~ 8750 3000
NoConn ~ 8750 3100
NoConn ~ 8750 3200
NoConn ~ 8750 3300
NoConn ~ 8750 3500
NoConn ~ 7550 3400
NoConn ~ 7550 3200
NoConn ~ 7550 3100
NoConn ~ 3850 3400
NoConn ~ 3850 3000
NoConn ~ 3850 2900
NoConn ~ 3850 3700
NoConn ~ 3850 4200
NoConn ~ 4350 4500
NoConn ~ 4850 4200
NoConn ~ 4850 4100
NoConn ~ 4850 3700
NoConn ~ 4850 3500
NoConn ~ 4850 3300
NoConn ~ 4850 3000
NoConn ~ 4850 2900
NoConn ~ 4250 2500
NoConn ~ 4450 2500
NoConn ~ 5900 3700
Wire Bus Line
	3250 2300 6750 2300
Wire Wire Line
	3450 2700 2850 2700
Wire Wire Line
	2850 2700 2850 2300
Wire Wire Line
	3450 2700 3450 3300
Wire Wire Line
	3350 3500 3850 3500
Wire Wire Line
	3350 3600 3850 3600
Text Label 3400 3500 0    50   ~ 0
TX_MCU
Wire Bus Line
	3250 2300 3250 3500
Wire Bus Line
	6750 2300 6750 2900
Text Label 3400 3600 0    50   ~ 0
RX_MCU
$EndSCHEMATC
